7 Brojevi – Znanost o podacima u R-u
…
Warning in x * y: longer object length is not a multiple of shorter object
length

[1] 10 40 30 80 50

Ova pravila recikliranja primjenjuju se i na logičke usporedbe (==, <, <=, >, >=, !=) i mogu dovesti do iznenađujućih rezultata ako slučajno koristite == umjesto %in% i podatkovni okvir ima nepovoljan broj redaka. Na primjer, uzmimo ovaj kod koji pokušava pronaći sve Pokémone iz prve i druge generacije:

NotePrimjer

pokemon_dataset |> filter(generation == c(1, 2))

# A tibble: 136 × 13
      id name            type_1 type_2 total    HP attack defense special_attack
   <dbl> <chr>           <fct>  <fct>  <dbl> <dbl>  <dbl>   <dbl>          <dbl>
 1     1 bulbasaur       grass  poison   318    45     49      49             65
 2     3 venusaur        grass  poison   525    80     82      83            100
 3     4 charmander      fire   <NA>     309    39     52      43             60
 4     6 charizard       fire   flying   534    78     84      78            109
 5     6 charizardmega … fire   flying   634    78    104      78            159
 6     8 wartortle       water  <NA>     405    59     63      80             65
 7     9 blastoisemega … water  <NA>     630    79    103     120            135
 8    11 metapod         bug    <NA>     205    50     20      55             25
 9    13 weedle          bug    poison   195    40     35      30             20
10    15 beedrill        bug    poison   395    65     90      40             45
# ℹ 126 more rows
# ℹ 4 more variables: special_defense <dbl>, speed <dbl>, generation <fct>,
#   legendary <lgl>

Kod se izvršava bez greške, ali ne vraća ono što želimo. Zbog pravila recikliranja, ovaj kod pronalazi Pokémone u redovima s neparnim brojevima koji su iz generacije 1 i Pokémone u redovima s parnim brojevima koji su iz generacije 2. Nažalost, nema upozorenja jer pokemon_dataset ima paran broj redaka.

Da bi se zaštitili od ovakvog tihog neuspjeha, većina tidyverse funkcija koristi strožu formu recikliranja koja reciklira samo pojedinačne vrijednosti. Nažalost, to ne pomaže u ovom slučaju, niti u mnogim drugim, jer se ključni izračun provodi osnovnom R funkcijom ==, a ne filter(). Ispravno rješenje za ovaj problem je korištenje operatora %in%:

NotePrimjer

pokemon_dataset |> filter(generation %in% c(1, 2))

# A tibble: 272 × 13
      id name            type_1 type_2 total    HP attack defense special_attack
   <dbl> <chr>           <fct>  <fct>  <dbl> <dbl>  <dbl>   <dbl>          <dbl>
 1     1 bulbasaur       grass  poison   318    45     49      49             65
 2     2 ivysaur         grass  poison   405    60     62      63             80
 3     3 venusaur        grass  poison   525    80     82      83            100
 4     3 venusaurmega v… grass  poison   625    80    100     123            122
 5     4 charmander      fire   <NA>     309    39     52      43             60
 6     5 charmeleon      fire   <NA>     405    58     64      58             80
 7     6 charizard       fire   flying   534    78     84      78            109
 8     6 charizardmega … fire   dragon   634    78    130     111            130
 9     6 charizardmega … fire   flying   634    78    104      78            159
10     7 squirtle        water  <NA>     314    44     48      65             50
# ℹ 262 more rows
# ℹ 4 more variables: special_defense <dbl>, speed <dbl>, generation <fct>,
#   legendary <lgl>

Minimum i maksimum

Aritmetičke funkcije rade s parovima varijabli. Dvije usko povezane funkcije su pmin() i pmax() koje, kada im se daju dvije ili više varijabli, vraćaju najmanju ili najveću vrijednost u svakom retku:

NotePrimjer

pokemon_dataset |>
  mutate(
    lower_stat = pmin(attack, defense),
    higher_stat = pmax(attack, defense)
  ) |>
  select(name, attack, defense, lower_stat, higher_stat)

# A tibble: 800 × 5
   name                      attack defense lower_stat higher_stat
   <chr>                      <dbl>   <dbl>      <dbl>       <dbl>
 1 bulbasaur                     49      49         49          49
 2 ivysaur                       62      63         62          63
 3 venusaur                      82      83         82          83
 4 venusaurmega venusaur        100     123        100         123
 5 charmander                    52      43         43          52
 6 charmeleon                    64      58         58          64
 7 charizard                     84      78         78          84
 8 charizardmega charizard x    130     111        111         130
 9 charizardmega charizard y    104      78         78         104
10 squirtle                      48      65         48          65
# ℹ 790 more rows

Ovaj primjer pokazuje kako možemo usporediti napad i obranu svakog Pokémona i identificirati koja je statistika niža, a koja viša.

Važno je razlikovati ove funkcije od funkcija sažimanja min() i max() koje uzimaju više opservacija i vraćaju jednu vrijednost. Možete prepoznati da ste koristili pogrešnu formu kada su svi minimumi i svi maksimumi iste vrijednosti:

NotePrimjer

pokemon_dataset |>
  mutate(
    lower_stat = min(attack, defense),
    higher_stat = max(attack, defense)
  ) |>
  select(name, attack, defense, lower_stat, higher_stat)

# A tibble: 800 × 5
   name                      attack defense lower_stat higher_stat
   <chr>                      <dbl>   <dbl>      <dbl>       <dbl>
 1 bulbasaur                     49      49          5         230
 2 ivysaur                       62      63          5         230
 3 venusaur                      82      83          5         230
 4 venusaurmega venusaur        100     123          5         230
 5 charmander                    52      43          5         230
 6 charmeleon                    64      58          5         230
 7 charizard                     84      78          5         230
 8 charizardmega charizard x    130     111          5         230
 9 charizardmega charizard y    104      78          5         230
10 squirtle                      48      65          5         230
# ℹ 790 more rows
…
Logaritmi su izuzetno korisna transformacija za rad s podacima koji se protežu kroz više redova veličine i za pretvaranje eksponencijalnog rasta u linearni rast. U R-u možete odabrati između tri logaritma: log() (prirodni logaritam, baza e), log2() (baza 2) i log10() (baza 10). Preporučuje se korištenje log2() ili log10(). Funkcija log2() je laka za interpretaciju jer razlika od 1 na logaritamskoj skali odgovara udvostručenju na originalnoj skali, a razlika od -1 odgovara prepolovljenju. Funkcija log10() je laka za povratnu transformaciju jer je, na primjer, 3 jednako 10^3 = 1000. Inverzna funkcija za log() je exp(), a za izračun inverzne funkcije za log2() ili log10() potrebno je koristiti 2^ ili 10^.

U kontekstu pokemon_dataset podatkovnog okvira, logaritamska transformacija može biti korisna za analizu statistika koje imaju širok raspon vrijednosti:

NotePrimjer

pokemon_dataset |>
  mutate(
    log_hp = log10(HP),
    log_attack = log10(attack)
  ) |>
  select(name, HP, log_hp, attack, log_attack)

# A tibble: 800 × 5
   name                         HP log_hp attack log_attack
   <chr>                     <dbl>  <dbl>  <dbl>      <dbl>
 1 bulbasaur                    45   1.65     49       1.69
 2 ivysaur                      60   1.78     62       1.79
 3 venusaur                     80   1.90     82       1.91
 4 venusaurmega venusaur        80   1.90    100       2   
 5 charmander                   39   1.59     52       1.72
 6 charmeleon                   58   1.76     64       1.81
 7 charizard                    78   1.89     84       1.92
 8 charizardmega charizard x    78   1.89    130       2.11
 9 charizardmega charizard y    78   1.89    104       2.02
10 squirtle                     44   1.64     48       1.68
# ℹ 790 more rows
…
[1] 0 0 5 5 5

U kontekstu pokemon_dataset podatkovnog okvira, zaokruživanje može biti korisno za kategorizaciju statistika:

NotePrimjer

pokemon_dataset |>
  mutate(
    hp_rounded = round(HP, -1),
    speed_category = round(speed / 25) * 25
  ) |>
  select(name, HP, hp_rounded, speed, speed_category)

# A tibble: 800 × 5
   name                         HP hp_rounded speed speed_category
   <chr>                     <dbl>      <dbl> <dbl>          <dbl>
 1 bulbasaur                    45         40    45             50
 2 ivysaur                      60         60    60             50
 3 venusaur                     80         80    80             75
 4 venusaurmega venusaur        80         80    80             75
 5 charmander                   39         40    65             75
 6 charmeleon                   58         60    80             75
 7 charizard                    78         80   100            100
 8 charizardmega charizard x    78         80   100            100
 9 charizardmega charizard y    78         80   100            100
10 squirtle                     44         40    43             50
# ℹ 790 more rows
…
