4 Manipulacija podacima – Znanost o podacima u R-u
…
matches() - odabire stupce koji imaju određeni uzorak.

Koristan dodatak glagolu select() je znak - (minus) kojim se može izolirati određena varijabla. U slučaju da želimo filtrirati ispis samo pojedinih varijabli, a ako je njihov broj veći, jednostavnije je samo izbrisati neku varijablu nego ju neimenovati unutar glagola.

NotePrimjer

Recimo da nam su nam u analizi potrebne samo varijable “name”, “type_1”, “type_2”, “generation” i “legendary”. Te varijable možemo filtrirati glagolom select() na različite načine.

Prvi je način izrazom name:type_2 koji odabire sve stupce između varijable “name” i “type_2” uključivo. Uz to, za stupce “generation” i “legendary” potrebno je eksplicitno dodati naziv varijable.

# Izdvajanje pojedinih varijabli podatkovnog okvira
pokemon_dataset |> select(name:type_2, generation, legendary)

# A tibble: 800 × 5
   name                      type_1 type_2 generation legendary
   <chr>                     <fct>  <fct>  <fct>      <lgl>    
 1 bulbasaur                 grass  poison 1          FALSE    
 2 ivysaur                   grass  poison 1          FALSE    
 3 venusaur                  grass  poison 1          FALSE    
 4 venusaurmega venusaur     grass  poison 1          FALSE    
 5 charmander                fire   <NA>   1          FALSE    
 6 charmeleon                fire   <NA>   1          FALSE    
 7 charizard                 fire   flying 1          FALSE    
 8 charizardmega charizard x fire   dragon 1          FALSE    
 9 charizardmega charizard y fire   flying 1          FALSE    
10 squirtle                  water  <NA>   1          FALSE    
# ℹ 790 more rows

U drugom slučaju, recimo da možemo varijablu “name” eksplicitno imenovati, varijable “type_1” i “type_2” odabrati funkcijom starts_with("type") kojom se odabire ispis svih varijabli čiji naziv počinje s riječju “type”, a funkcija last_col() odabire posljednji stupac u podatkovnom okviru bez obzira na naziv te varijable.

# Izdvajanje pojedinih varijabli podatkovnog okvira
pokemon_dataset |> select(name, starts_with("type"), last_col())

# A tibble: 800 × 4
   name                      type_1 type_2 legendary
   <chr>                     <fct>  <fct>  <lgl>    
 1 bulbasaur                 grass  poison FALSE    
 2 ivysaur                   grass  poison FALSE    
 3 venusaur                  grass  poison FALSE    
 4 venusaurmega venusaur     grass  poison FALSE    
 5 charmander                fire   <NA>   FALSE    
 6 charmeleon                fire   <NA>   FALSE    
 7 charizard                 fire   flying FALSE    
 8 charizardmega charizard x fire   dragon FALSE    
 9 charizardmega charizard y fire   flying FALSE    
10 squirtle                  water  <NA>   FALSE    
# ℹ 790 more rows
…
Glagol arrange() sortira opažanja podatkovnog okvira prema vrijednostima odabranih stupaca. dplyr automatski reda podatke od najmanjih do najvećih, a želimo li da se podaci redaju od najvećih do najmanjih, u glagol treba dodati funkciju desc(). U slučaju kada se redaju kvalitativni podaci, oni se redaju abecednim redom od A do Z ili uz korištenje funkcije desc() od Z do A.

Za razliku od drugih dplyr glagola, arrange() uglavnom ignorira grupiranje pa je potrebno eksplicitno spomenuti varijable koje se grupiraju ili koristiti .by_group = TRUE da bi se varijable grupirale po njima.

NotePrimjer

Recimo da nas zanima top 10 vodenih pokemona prema ukupnom zbroj svih osnovnih statistika Pokemona. Za takvu manipulaciju koristimo nekoliko glagola. Prvi je filter() kojim odabiremo samo vodene Pokemone iz podatkovnog okvira, a zatim koristimo arrange() s funkcijom desc() kako bismo filtrirane Pokemone poredali od onih koji imaju najveći ukupan zbroj statistika do onih s najmanjim. Konačno, možemo koristiti glagol select() za odabir samo relevantnih varijabli.

# Filtriranje vodenih pokemona i redanje ukupne statistike sposobnosti pokemona od najvećih do najnižih
pokemon_dataset |>
  filter(type_1 == "water") |>
  arrange(desc(total)) |>
  select(name, total)

# A tibble: 112 × 2
   name                    total
   <chr>                   <dbl>
 1 kyogreprimal kyogre       770
 2 palkia                    680
 3 kyogre                    670
 4 gyaradosmega gyarados     640
 5 swampertmega swampert     635
 6 blastoisemega blastoise   630
 7 manaphy                   600
 8 slowbromega slowbro       590
 9 suicune                   580
10 keldeoordinary forme      580
# ℹ 102 more rows
…
    generation = case_when(
      generation == 1 ~ "Prva generacija",
      generation == 2 ~ "Druga generacija",
      generation == 3 ~ "Treća generacija",
      generation == 4 ~ "Četvrta generacija",
      generation == 5 ~ "Peta generacija",
      generation == 6 ~ "Šesta generacija",
      generation == 7 ~ "Sedma generacija",
      generation == 8 ~ "Osma generacija",
      TRUE ~ as.character(generation)
    )
  ) |>
  select(name, generation)

# A tibble: 800 × 2
   name                      generation     
   <chr>                     <chr>          
 1 bulbasaur                 Prva generacija
 2 ivysaur                   Prva generacija
 3 venusaur                  Prva generacija
 4 venusaurmega venusaur     Prva generacija
 5 charmander                Prva generacija
 6 charmeleon                Prva generacija
 7 charizard                 Prva generacija
 8 charizardmega charizard x Prva generacija
 9 charizardmega charizard y Prva generacija
10 squirtle                  Prva generacija
# ℹ 790 more rows
…
  mutate(
    # Izračun ukupne statistike
    total_stats = attack + defense + HP + speed + special_attack + special_defense,
    # Omjer napada i obrane
    attack_defense_ratio = attack / defense,
    # Kategorija na temelju HP-a
    hp_category = case_when(
      HP < 50 ~ "Low HP",
      HP < 80 ~ "Medium HP",
      TRUE ~ "High HP"
    )
  ) |>
  select(name, total_stats, attack_defense_ratio, hp_category)

# A tibble: 800 × 4
   name                      total_stats attack_defense_ratio hp_category
   <chr>                           <dbl>                <dbl> <chr>      
 1 bulbasaur                         318                1     Low HP     
 2 ivysaur                           405                0.984 Medium HP  
 3 venusaur                          525                0.988 High HP    
 4 venusaurmega venusaur             625                0.813 High HP    
 5 charmander                        309                1.21  Low HP     
 6 charmeleon                        405                1.10  Medium HP  
 7 charizard                         534                1.08  Medium HP  
 8 charizardmega charizard x         634                1.17  Medium HP  
 9 charizardmega charizard y         634                1.33  Medium HP  
10 squirtle                          314                0.738 Low HP     
# ℹ 790 more rows

Konačno, u posljednjem slučaju želimo trajno izbrisati sve varijable osim “id”, “name”, “type_1” i “total”. To se može postići funkcijom across() i logičkim operatorima kojima se definiralo koje varijable želimo izbrisati.

pokemon_dataset |> mutate(across(type_2 | HP:legendary, ~NULL))

# A tibble: 800 × 4
      id name                      type_1 total
   <dbl> <chr>                     <fct>  <dbl>
 1     1 bulbasaur                 grass    318
 2     2 ivysaur                   grass    405
 3     3 venusaur                  grass    525
 4     3 venusaurmega venusaur     grass    625
 5     4 charmander                fire     309
 6     5 charmeleon                fire     405
 7     6 charizard                 fire     534
 8     6 charizardmega charizard x fire     634
 9     6 charizardmega charizard y fire     634
10     7 squirtle                  water    314
# ℹ 790 more rows
…
Kvantifikacija učestalosti različitih kategorija ili kombinacija varijabli temeljna je za razumijevanje distribucije podataka. Zato brojanje omogućuje brzu identifikaciju najčešćih vrijednosti, analizu kategorijskih podataka i osnovnu deskriptivnu statistiku.

TipGlagol count()

Glagol count() broji ukupan broj opservacija koje zadovoljavaju određene uvjete ili su grupirani prema određenim vrijednostima. On pojednostavljuje izračunavanje učestalosti pojavljivanja različitih vrijednosti unutar jednog ili više stupaca. S argumentom sort = TRUE mogu se poredati u silaznom redoslijed broja pojavljivanja.

NotePrimjer

Primjer korištenja glagola count() bio bi kada bismo htjeli prebrojiti broj legendarnih i nelegendarnih Pokemona iz svakog tipa pokemona prema varijabli “type_1”. Konačni ispis prikazat će svaki tip Pokemona u prvom stupcu i TRUE ili FALSE vrijednosti u drugom stupcu koji potvrđuje je li Pokemon ili nije legendarni. Posljednji stupac definira koliko je legendarnih ili nelegendarnih Pokemona toga tipa podataka.

# Brojanje pokemona prema tipu 1 i legendarnosti
pokemon_dataset |> count(type_1, legendary)

# A tibble: 33 × 3
   type_1  legendary     n
   <fct>   <lgl>     <int>
 1 water   FALSE       108
 2 water   TRUE          4
 3 normal  FALSE        96
 4 normal  TRUE          2
 5 grass   FALSE        67
 6 grass   TRUE          3
 7 bug     FALSE        69
 8 psychic FALSE        43
 9 psychic TRUE         14
10 fire    FALSE        47
# ℹ 23 more rows
…
Osim toga, mogu nas zanimati prosječne napadačke i obrambene sposobnosti Pokemona s obzirom na tip pokemona i legendarnost. U tu svrhu, možemo grupirati podatkovni okvir prema dvije varijable, type_1 i legendary, čime ćemo dobiti podatkovni skup s informacijama o prosječnim napadačkim i obrambenim vrijednostima svake skupine.

# Prikaz minimalnih i maksimalnih obrambenih bodova s obzirom na tip 1 i legendarnost pokemona
pokemon_dataset |>
  group_by(type_1, legendary) |>
  summarise(
    mean_attack = mean(attack),
    mean_defense = mean(defense)
  )

`summarise()` has grouped output by 'type_1'. You can override using the
`.groups` argument.

# A tibble: 33 × 4
# Groups:   type_1 [18]
   type_1  legendary mean_attack mean_defense
   <fct>   <lgl>           <dbl>        <dbl>
 1 water   FALSE            72.8         72.0
 2 water   TRUE            111.          98.8
 3 normal  FALSE            72.1         58.7
 4 normal  TRUE            140          115  
 5 grass   FALSE            72.1         70.3
 6 grass   TRUE             97.7         82.3
 7 bug     FALSE            71.0         70.7
 8 psychic FALSE            55.0         61  
 9 psychic TRUE            122.          88.2
10 fire    FALSE            82.2         64.5
# ℹ 23 more rows
…
Za promjenu imena varijable koristi se glagol rename() u kojem se imenuje novi naziv varijable i stari naziv odjeljen znakom =. Prije znaka jednakosti pritom se piše novi naziv, a nakon znaka jednakosti stari naziv varijabli podatkovnog okvira. Ime varijable može se promijeniti i koristeći samo glagol select(), no u tom se slučaju moraju navoditi sve varijable koje želimo imati u podatkovnom okviru, a ne samo preimenovane varijable.

NotePrimjer

Recimo da želimo kreirati podatkovni okvir u kojem će biti samo tri varijable kojima će nazivi biti zapisani velikim slovima. Najjednostavniji način za postizanje toga je koristiti glagol rename() u koji se unose novi i stari nazivi varijabli koje želimo preimenovati.

pokemon_dataset |>
  select(name, type_1, type_2, legendary) |>
  rename(
    NAME = name,
    TYPE1 = type_1,
    TYPE2 = type_2
  )

# A tibble: 800 × 4
   NAME                      TYPE1 TYPE2  legendary
   <chr>                     <fct> <fct>  <lgl>    
 1 bulbasaur                 grass poison FALSE    
 2 ivysaur                   grass poison FALSE    
 3 venusaur                  grass poison FALSE    
 4 venusaurmega venusaur     grass poison FALSE    
 5 charmander                fire  <NA>   FALSE    
 6 charmeleon                fire  <NA>   FALSE    
 7 charizard                 fire  flying FALSE    
 8 charizardmega charizard x fire  dragon FALSE    
 9 charizardmega charizard y fire  flying FALSE    
10 squirtle                  water <NA>   FALSE    
# ℹ 790 more rows
…
Glagol relocate() koristi se za promjenu redoslijeda varijabli u nizu varijabli. relocate() se koristi uz argumente .before koji označava da se određena varijabla treba ispisati ispred neke druge i .after koja označava da se određena varijabla treba ispisati iza neke druge.

Redoslijed varijabli može se promijeniti i koristeći glagol select(), no u tom se slučaju moraju navoditi sve varijable.

NotePrimjer

Recimo da se u daljnjoj analizi želimo usmjeriti samo na varijable “id”, “name”, “type_1” i “type_2”, no želimo da im redoslijed bude slijedeći: 1. “type_2”, 2. “name”, 3. “type_1” i 4. “id”.

pokemon_dataset |>
  select(id, name, type_1, type_2) |>
  relocate(id, .after = type_1) |>
  relocate(type_2, .before = name)

# A tibble: 800 × 4
   type_2 name                      type_1    id
   <fct>  <chr>                     <fct>  <dbl>
 1 poison bulbasaur                 grass      1
 2 poison ivysaur                   grass      2
 3 poison venusaur                  grass      3
 4 poison venusaurmega venusaur     grass      3
 5 <NA>   charmander                fire       4
 6 <NA>   charmeleon                fire       5
 7 flying charizard                 fire       6
 8 dragon charizardmega charizard x fire       6
 9 flying charizardmega charizard y fire       6
10 <NA>   squirtle                  water      7
# ℹ 790 more rows
…
