8 Logičke vrijednosti – Znanost o podacima u R-u
…
Rezultati usporedbi često se koriste za indeksiranje i filtriranje podataka, što predstavlja jednu od najmoćnijih primjena logičkih vrijednosti u R-u. Logički vektori mogu se koristiti unutar uglate zagrade za odabir podskupa podataka koji zadovoljavaju određene kriterije. Na primjer, pokemon_dataset[pokemon_dataset$HP > 100, ] izdvojit će sve retke podataka gdje Pokemoni imaju više od 100 HP-ova, omogućavajući analitičarima da se fokusiraju na robusnije Pokemone. Kombiniranjem više usporedbi moguće je stvarati složenije filtere koji istovremeno provjeravaju više uvjeta, što omogućava preciznu selekciju podataka prema specifičnim potrebama analize.

# Filtriranje Pokemona s više od 100 HP
pokemon_dataset[pokemon_dataset$HP > 100, ]

# A tibble: 67 × 13
      id name            type_1 type_2 total    HP attack defense special_attack
   <dbl> <chr>           <fct>  <fct>  <dbl> <dbl>  <dbl>   <dbl>          <dbl>
 1    39 jigglypuff      normal fairy    270   115     45      20             45
 2    40 wigglytuff      normal fairy    435   140     70      45             85
 3    89 muk             poison <NA>     500   105    105      75             65
 4   112 rhydon          ground rock     485   105    130     120             45
 5   113 chansey         normal <NA>     450   250      5       5             35
 6   115 kangaskhan      normal <NA>     490   105     95      80             40
 7   115 kangaskhanmega… normal <NA>     590   105    125     100             60
 8   131 lapras          water  ice      535   130     85      80             85
 9   134 vaporeon        water  <NA>     525   130     65      60            110
10   143 snorlax         normal <NA>     540   160    110      65             65
# ℹ 57 more rows
# ℹ 4 more variables: special_defense <dbl>, speed <dbl>, generation <fct>,
#   legendary <lgl>
…
# Kreiranje binarne oznake za legendary status
pokemon_dataset$legendary_label <- if_else(
  pokemon_dataset$legendary == TRUE,
  "Legendarni",
  "Obični"
)

pokemon_dataset |> select(name, attack, attack_category, speed, speed_level, HP, high_hp, legendary, legendary_label)

# A tibble: 800 × 9
   name         attack attack_category speed speed_level    HP high_hp legendary
   <chr>         <dbl> <chr>           <dbl> <chr>       <dbl> <chr>   <lgl>    
 1 bulbasaur        49 Slab               45 Spor           45 Normal… FALSE    
 2 ivysaur          62 Slab               60 Spor           60 Normal… FALSE    
 3 venusaur         82 Slab               80 Spor           80 Normal… FALSE    
 4 venusaurmeg…    100 Slab               80 Spor           80 Normal… FALSE    
 5 charmander       52 Slab               65 Spor           39 Normal… FALSE    
 6 charmeleon       64 Slab               80 Spor           58 Normal… FALSE    
 7 charizard        84 Slab              100 Brz            78 Normal… FALSE    
 8 charizardme…    130 Snažan            100 Brz            78 Normal… FALSE    
 9 charizardme…    104 Snažan            100 Brz            78 Normal… FALSE    
10 squirtle         48 Slab               43 Spor           44 Normal… FALSE    
# ℹ 790 more rows
# ℹ 1 more variable: legendary_label <chr>
…
# Kreiranje numeričke oznake za generaciju
pokemon_dataset$gen_numeric <- if_else(
  pokemon_dataset$generation <= 3,
  1,
  2
)

Warning in Ops.factor(pokemon_dataset$generation, 3): '<=' not meaningful for
factors

pokemon_dataset |> select(name, total, power_status, type_1, attack_bonus, generation, gen_numeric)

# A tibble: 800 × 7
   name            total power_status type_1 attack_bonus generation gen_numeric
   <chr>           <dbl> <chr>        <fct>         <dbl> <fct>            <dbl>
 1 bulbasaur         318 Prosječan    grass             0 1                   NA
 2 ivysaur           405 Prosječan    grass             0 1                   NA
 3 venusaur          525 Moćan        grass             0 1                   NA
 4 venusaurmega v…   625 Moćan        grass             0 1                   NA
 5 charmander        309 Prosječan    fire              0 1                   NA
 6 charmeleon        405 Prosječan    fire              0 1                   NA
 7 charizard         534 Moćan        fire              0 1                   NA
 8 charizardmega …   634 Moćan        fire              0 1                   NA
 9 charizardmega …   634 Moćan        fire              0 1                   NA
10 squirtle          314 Prosječan    water             0 1                   NA
# ℹ 790 more rows
…
# Klasifikacija brzine s rukovanjem NA
pokemon_dataset$speed_class <- if_else(
  pokemon_dataset$speed > 100,
  "Vrlo brz",
  "Umjereno brz",
  missing = "Podaci nedostaju"
)

pokemon_dataset |> select(name, defense, defense_category, speed, speed_class)

# A tibble: 800 × 5
   name                      defense defense_category speed speed_class 
   <chr>                       <dbl> <chr>            <dbl> <chr>       
 1 bulbasaur                      49 Slaba obrana        45 Umjereno brz
 2 ivysaur                        63 Slaba obrana        60 Umjereno brz
 3 venusaur                       83 Jaka obrana         80 Umjereno brz
 4 venusaurmega venusaur         123 Jaka obrana         80 Umjereno brz
 5 charmander                     43 Slaba obrana        65 Umjereno brz
 6 charmeleon                     58 Slaba obrana        80 Umjereno brz
 7 charizard                      78 Slaba obrana       100 Umjereno brz
 8 charizardmega charizard x     111 Jaka obrana        100 Umjereno brz
 9 charizardmega charizard y      78 Slaba obrana       100 Umjereno brz
10 squirtle                       65 Slaba obrana        43 Umjereno brz
# ℹ 790 more rows
…
# Klasifikacija na temelju Type_1
pokemon_dataset$type_group <- case_when(
  pokemon_dataset$type_1 %in% c("Fire", "Water", "Grass") ~ "Početni tipovi",
  pokemon_dataset$type_1 %in% c("Dragon", "Psychic", "Dark") ~ "Specijalni tipovi",
  pokemon_dataset$type_1 %in% c("Normal", "Flying") ~ "Česti tipovi",
  TRUE ~ "Ostali tipovi"
)

pokemon_dataset |> select(name, total, power_tier, attack, attack_class, type_1, type_group)

# A tibble: 800 × 7
   name                   total power_tier attack attack_class type_1 type_group
   <chr>                  <dbl> <chr>       <dbl> <chr>        <fct>  <chr>     
 1 bulbasaur                318 C Tier         49 Nizak        grass  Ostali ti…
 2 ivysaur                  405 B Tier         62 Nizak        grass  Ostali ti…
 3 venusaur                 525 A Tier         82 Srednji      grass  Ostali ti…
 4 venusaurmega venusaur    625 S Tier        100 Srednji      grass  Ostali ti…
 5 charmander               309 C Tier         52 Nizak        fire   Ostali ti…
 6 charmeleon               405 B Tier         64 Nizak        fire   Ostali ti…
 7 charizard                534 A Tier         84 Srednji      fire   Ostali ti…
 8 charizardmega chariza…   634 S Tier        130 Visok        fire   Ostali ti…
 9 charizardmega chariza…   634 S Tier        104 Visok        fire   Ostali ti…
10 squirtle                 314 C Tier         48 Nizak        water  Ostali ti…
# ℹ 790 more rows
…
