10 Nizovi – Znanost o podacima u R-u
…
pokemon_teams

# A tibble: 5 × 2
  trainer     pokemon_team                                            
  <chr>       <chr>                                                   
1 Ash         Pikachu, Charizard, Bulbasaur, Squirtle, Snorlax, Lapras
2 Misty       Staryu, Starmie, Psyduck, Goldeen                       
3 Brock       Onix, Graveler, Crobat                                  
4 Gary        Blastoise, Arcanine, Nidoking, Alakazam, Tyranitar      
5 Team Rocket Meowth, Arbok, Weezing                                  

pokemon_teams |>
  separate_longer_delim(pokemon_team, delim = ", ")

# A tibble: 21 × 2
   trainer pokemon_team
   <chr>   <chr>       
 1 Ash     Pikachu     
 2 Ash     Charizard   
 3 Ash     Bulbasaur   
 4 Ash     Squirtle    
 5 Ash     Snorlax     
 6 Ash     Lapras      
 7 Misty   Staryu      
 8 Misty   Starmie     
 9 Misty   Psyduck     
10 Misty   Goldeen     
# ℹ 11 more rows
…
