6 Pridruživanje podataka – Znanost o podacima u R-u
…
Konačno, potpuno pridruživanje (full join) zadržava sve zapise koji se pojavljuju u oba podatkovna okvira. Svaki redak i iz podatkovnog okvira označenog argumentom x i iz onog označenog y bit će uključen u rezultat jer obje tablice imaju rezervni redak s NA vrijednostima.

NotePrimjer

Glagol full_join() vraća 23 redaka, odnosno zbroj svih jedinstvenih Pokemona iz oba izvora. Pritom 16 Pokemona ima NA ili za “special_attack” i “special_defense” ili pak za “name”, “type_1” i “type_2”. Samo sedam Pokemona imat će potpune podatke iz oba izvora jer su to oni pokemoni čije se vrijednosti nalaze u oba podatkovna okvira.

# Potpuno spajanje - svi Pokemoni iz oba podatkovna okvira su zadržani
full_join(
  x = pokemon_names,
  y = pokemon_strength,
  by = join_by(id, name)
)

# A tibble: 23 × 5
      id name      type_1   special_attack special_defense
   <dbl> <chr>     <fct>             <dbl>           <dbl>
 1     1 bulbasaur grass                65              65
 2     2 ivysaur   grass                NA              NA
 3    16 pidgey    normal               NA              NA
 4    19 rattata   normal               25              35
 5    25 pikachu   electric             50              50
 6    41 zubat     poison               NA              NA
 7    48 venonat   bug                  40              55
 8    76 golem     rock                 NA              NA
 9   111 rhyhorn   ground               30              30
10   126 magmar    fire                 NA              NA
# ℹ 13 more rows
…
# Brojanje jačih Pokemona i izračun ranga
pokemon_ranking <- stronger_pokemon |>
  group_by(name_base, total_power_base) |>
  summarise(
    stronger_count = n(),
    .groups = "drop"
  ) |>
  mutate(rank = stronger_count + 1) |>
  arrange(rank)

# Pregled podataka
pokemon_ranking

# A tibble: 798 × 4
   name_base               total_power_base stronger_count  rank
   <chr>                              <dbl>          <int> <dbl>
 1 rayquazamega rayquaza                560              2     3
 2 mewtwomega mewtwo x                  544              3     4
 3 dianciemega diancie                  540              4     5
 4 mewtwomega mewtwo y                  534              5     6
 5 tyranitarmega tyranitar              529              6     7
 6 hoopahoopa unbound                   520              7     8
 7 aggronmega aggron                    510              8     9
 8 latiasmega latias                    510              8     9
 9 latiosmega latios                    510              8     9
10 metagrossmega metagross              510              8     9
# ℹ 788 more rows
…
# Definiranje granica kategorija
power_tiers <- data.frame(
  tier_name = c("Weak", "Middle", "Strong"),
  min_attack = c(0, 50, 100),
  max_attack = c(49, 99, 200)
)

# Kategorizacija Pokemona prema snazi napada
pokemon_dataset |>
  inner_join(power_tiers, join_by(attack >= min_attack, attack <= max_attack)) |>
  select(name, attack, tier_name) |>
  arrange(attack)

# A tibble: 800 × 3
   name     attack tier_name
   <chr>     <dbl> <chr>    
 1 chansey       5 Weak     
 2 happiny       5 Weak     
 3 magikarp     10 Weak     
 4 shuckle      10 Weak     
 5 blissey      10 Weak     
 6 feebas       15 Weak     
 7 metapod      20 Weak     
 8 abra         20 Weak     
 9 ledyba       20 Weak     
10 togepi       20 Weak     
# ℹ 790 more rows
…
# Klizno spajanje za pronalaženje odgovarajuće generacije
pokemon_with_generation <- pokemon_with_years |>
  left_join(pokemon_generations, join_by(closest(introduced_year >= year_introduced)))

# Prikaz rezultata
pokemon_with_generation

# A tibble: 26 × 7
      id name          generation.x introduced_year generation.y year_introduced
   <dbl> <chr>         <fct>                  <dbl>        <dbl>           <dbl>
 1     1 bulbasaur     1                       1996            1            1996
 2     2 ivysaur       1                       1996            1            1996
 3     3 venusaur      1                       1996            1            1996
 4     3 venusaurmega… 1                       1996            1            1996
 5     4 charmander    1                       1996            1            1996
 6     5 charmeleon    1                       1996            1            1996
 7     6 charizard     1                       1996            1            1996
 8     6 charizardmeg… 1                       1996            1            1996
 9     6 charizardmeg… 1                       1996            1            1996
10     7 squirtle      1                       1996            1            1996
# ℹ 16 more rows
# ℹ 1 more variable: generation_name <chr>
…
Drugi primjer kliznog spajanja mogao bi uključivati usporedbu statistika Pokemona. Pretpostavimo da želimo za svakog Pokemona pronaći onog s najbližom vrijednošću napada.

# Pronalaženje Pokemona s najbližom vrijednošću napada
closest_attack <- pokemon_dataset |>
  left_join(
    pokemon_dataset,
    join_by(closest(attack >= attack)),
    suffix = c("_original", "_closest")
  )

# Prikaz rezultata
closest_attack |>
  select(name_original, attack_original, name_closest, attack_closest)

# A tibble: 16,916 × 4
   name_original attack_original name_closest attack_closest
   <chr>                   <dbl> <chr>                 <dbl>
 1 bulbasaur                  49 bulbasaur                49
 2 bulbasaur                  49 chikorita                49
 3 bulbasaur                  49 finneon                  49
 4 ivysaur                    62 ivysaur                  62
 5 ivysaur                    62 nidorina                 62
 6 ivysaur                    62 bayleef                  62
 7 ivysaur                    62 snover                   62
 8 venusaur                   82 venusaur                 82
 9 venusaur                   82 golduck                  82
10 venusaur                   82 meganium                 82
# ℹ 16,906 more rows
…
# Definiranje raspon razina za HP (hit points)
hp_tiers <- data.frame(
  tier_name = c("Low HP", "Middle HP", "High HP", "Highest HP"),
  hp_min = c(0, 50, 80, 120),
  hp_max = c(49, 79, 119, 255)
)

# Preklopno spajanje koristeći between()
pokemon_dataset |>
  inner_join(hp_tiers, join_by(between(HP, hp_min, hp_max))) |>
  select(name, HP, tier_name) |>
  arrange(desc(HP))

# A tibble: 800 × 3
   name                     HP tier_name 
   <chr>                 <dbl> <chr>     
 1 blissey                 255 Highest HP
 2 chansey                 250 Highest HP
 3 wobbuffet               190 Highest HP
 4 wailord                 170 Highest HP
 5 alomomola               165 Highest HP
 6 snorlax                 160 Highest HP
 7 slaking                 150 Highest HP
 8 drifblim                150 Highest HP
 9 giratinaaltered forme   150 Highest HP
10 giratinaorigin forme    150 Highest HP
# ℹ 790 more rows
…
# Pronalaženje Pokemona s preklapajućim rasponima snage
pokemon_power_ranges |>
  inner_join(
    pokemon_power_ranges,
    join_by(overlaps(power_min, power_max, power_min, power_max), id < id),
    suffix = c("_1", "_2")
  ) |>
  select(name_1, power_min_1, power_max_1, name_2, power_min_2, power_max_2)

# A tibble: 149,844 × 6
   name_1    power_min_1 power_max_1 name_2              power_min_2 power_max_2
   <chr>           <dbl>       <dbl> <chr>                     <dbl>       <dbl>
 1 bulbasaur          49          49 charmander                   43          52
 2 bulbasaur          49          49 squirtle                     48          65
 3 bulbasaur          49          49 metapod                      20          55
 4 bulbasaur          49          49 butterfree                   45          50
 5 bulbasaur          49          49 kakuna                       25          50
 6 bulbasaur          49          49 beedrill                     40          90
 7 bulbasaur          49          49 beedrillmega beedr…          40         150
 8 bulbasaur          49          49 rattata                      35          56
 9 bulbasaur          49          49 spearow                      30          60
10 bulbasaur          49          49 ekans                        44          60
# ℹ 149,834 more rows
…
