5 Nedostajajuće vrijednosti – Znanost o podacima u R-u
…
# Zadržavanje samo kompletnih redaka
pokemon_complete_dataset <- pokemon_dataset[complete.cases(pokemon_dataset), ]
pokemon_complete_dataset

# A tibble: 414 × 13
      id name            type_1 type_2 total    HP attack defense special_attack
   <dbl> <chr>           <fct>  <fct>  <dbl> <dbl>  <dbl>   <dbl>          <dbl>
 1     1 bulbasaur       grass  poison   318    45     49      49             65
 2     2 ivysaur         grass  poison   405    60     62      63             80
 3     3 venusaur        grass  poison   525    80     82      83            100
 4     3 venusaurmega v… grass  poison   625    80    100     123            122
 5     6 charizard       fire   flying   534    78     84      78            109
 6     6 charizardmega … fire   dragon   634    78    130     111            130
 7     6 charizardmega … fire   flying   634    78    104      78            159
 8    12 butterfree      bug    flying   395    60     45      50             90
 9    13 weedle          bug    poison   195    40     35      30             20
10    14 kakuna          bug    poison   205    45     25      50             25
# ℹ 404 more rows
# ℹ 4 more variables: special_defense <dbl>, speed <dbl>, generation <fct>,
#   legendary <lgl>

Osim toga funkcija drop_na() iz tidyr paketa uklanja redove koji sadrže nedostajuće vrijednosti u bilo kojem od specificiranih stupaca. Ova funkcija je vrlo jednostavna za korištenje i omogućava preciznu kontrolu nad time koji stupci se razmatraju pri uklanjanju redova.

NotePrimjer

# Uklanjanje redova s NA vrijednostima u bilo kojem stupcu
pokemon_dataset |>
  drop_na()

# A tibble: 414 × 13
      id name            type_1 type_2 total    HP attack defense special_attack
   <dbl> <chr>           <fct>  <fct>  <dbl> <dbl>  <dbl>   <dbl>          <dbl>
 1     1 bulbasaur       grass  poison   318    45     49      49             65
 2     2 ivysaur         grass  poison   405    60     62      63             80
 3     3 venusaur        grass  poison   525    80     82      83            100
 4     3 venusaurmega v… grass  poison   625    80    100     123            122
 5     6 charizard       fire   flying   534    78     84      78            109
 6     6 charizardmega … fire   dragon   634    78    130     111            130
 7     6 charizardmega … fire   flying   634    78    104      78            159
 8    12 butterfree      bug    flying   395    60     45      50             90
 9    13 weedle          bug    poison   195    40     35      30             20
10    14 kakuna          bug    poison   205    45     25      50             25
# ℹ 404 more rows
# ℹ 4 more variables: special_defense <dbl>, speed <dbl>, generation <fct>,
#   legendary <lgl>

# Uklanjanje redova s NA vrijednostima samo u specifičnim stupcima
pokemon_dataset %>%
  drop_na(type_2)

# A tibble: 414 × 13
      id name            type_1 type_2 total    HP attack defense special_attack
   <dbl> <chr>           <fct>  <fct>  <dbl> <dbl>  <dbl>   <dbl>          <dbl>
 1     1 bulbasaur       grass  poison   318    45     49      49             65
 2     2 ivysaur         grass  poison   405    60     62      63             80
 3     3 venusaur        grass  poison   525    80     82      83            100
 4     3 venusaurmega v… grass  poison   625    80    100     123            122
 5     6 charizard       fire   flying   534    78     84      78            109
 6     6 charizardmega … fire   dragon   634    78    130     111            130
 7     6 charizardmega … fire   flying   634    78    104      78            159
 8    12 butterfree      bug    flying   395    60     45      50             90
 9    13 weedle          bug    poison   195    40     35      30             20
10    14 kakuna          bug    poison   205    45     25      50             25
# ℹ 404 more rows
# ℹ 4 more variables: special_defense <dbl>, speed <dbl>, generation <fct>,
#   legendary <lgl>
0.2 Rad s nedostajajućim vrijednostima

Postoji više načina rješavanja problema nedostajajućih vrijednosti, od jednostavnijih kao što je njihovo ignoriranje do raznoraznih imputiranja regresijom. U nastavku će biti prikazano nekoliko jednostavnijih načina rada s nedostajajućim vrijednostima.

Popunjavanje nedostajajućih vrijednosti fiksnim vrijednostima

Ponekad nedostajuće vrijednosti predstavljaju fiksnu i poznatu vrijednost, najčešće nulu ili neku drugu kategorijalnu varijablu. U takvim slučajevima možete koristiti funkcija coalesce() dplyr paketa kako bi se u ćelije podatkovnog okvira stavila neka fiksna vrijednost. Jedna je često korištena mogućnost kod numeričkih imputiranje aritmetičke sredine vrijednosti koje imamo na mjesto nedostajajućih vrijednosti.

NotePrimjer

# Zamjena NA vrijednosti s nulom
pokemon_dataset |>
  mutate(type_2 = coalesce(type_2, "unknown"))

# A tibble: 800 × 13
      id name            type_1 type_2 total    HP attack defense special_attack
   <dbl> <chr>           <fct>  <chr>  <dbl> <dbl>  <dbl>   <dbl>          <dbl>
 1     1 bulbasaur       grass  poison   318    45     49      49             65
 2     2 ivysaur         grass  poison   405    60     62      63             80
 3     3 venusaur        grass  poison   525    80     82      83            100
 4     3 venusaurmega v… grass  poison   625    80    100     123            122
 5     4 charmander      fire   unkno…   309    39     52      43             60
 6     5 charmeleon      fire   unkno…   405    58     64      58             80
 7     6 charizard       fire   flying   534    78     84      78            109
 8     6 charizardmega … fire   dragon   634    78    130     111            130
 9     6 charizardmega … fire   flying   634    78    104      78            159
10     7 squirtle        water  unkno…   314    44     48      65             50
# ℹ 790 more rows
# ℹ 4 more variables: special_defense <dbl>, speed <dbl>, generation <fct>,
#   legendary <lgl>
…
pokemon_dataset |>
  select(id, name, type_2) |>
  fill(type_2, .direction = "down")

# A tibble: 800 × 3
      id name                      type_2
   <dbl> <chr>                     <fct> 
 1     1 bulbasaur                 poison
 2     2 ivysaur                   poison
 3     3 venusaur                  poison
 4     3 venusaurmega venusaur     poison
 5     4 charmander                poison
 6     5 charmeleon                poison
 7     6 charizard                 flying
 8     6 charizardmega charizard x dragon
 9     6 charizardmega charizard y flying
10     7 squirtle                  flying
# ℹ 790 more rows

Pretvaranje konkretnih vrijednosti u nedostajuće

Ponekad je moguće naići na suprotan problem gdje neka konkretna vrijednost zapravo predstavlja nedostajuću vrijednost. To se obično događa s podacima generiranim od strane programa koji nemaju prikladan način za predstavljanje nedostajajućih vrijednosti, pa umjesto toga koriste neku specijalnu vrijednost poput “99” ili “-999” kao oznaku za nedostajajuće vrijednosti.

NotePrimjer

pokemon_dataset |>
  select(id, name, type_2) |>
  mutate(type_2 = na_if(type_2, "flying"))

# A tibble: 800 × 3
      id name                      type_2
   <dbl> <chr>                     <fct> 
 1     1 bulbasaur                 poison
 2     2 ivysaur                   poison
 3     3 venusaur                  poison
 4     3 venusaurmega venusaur     poison
 5     4 charmander                <NA>  
 6     5 charmeleon                <NA>  
 7     6 charizard                 <NA>  
 8     6 charizardmega charizard x dragon
 9     6 charizardmega charizard y <NA>  
10     7 squirtle                  <NA>  
# ℹ 790 more rows
…
