12 Datum i vrijeme – Znanost o podacima u R-u
…
# Izdvajanje sata
pokemon_battles$battle_hour <- hour(pokemon_battles$battle_time)

# Analiza aktivnosti po satima
battles_per_hour <- pokemon_battles |>
  group_by(battle_hour) |>
  summarise(
    battle_count = n(),
    .groups = "drop"
  )

battles_per_hour

# A tibble: 24 × 2
   battle_hour battle_count
         <int>        <int>
 1           0           23
 2           1           20
 3           2           26
 4           3           16
 5           4           19
 6           5           20
 7           6           22
 8           7           21
 9           8           22
10           9           29
# ℹ 14 more rows
…
# Analiza po minutama
pokemon_center_visits$minute <- minute(pokemon_center_visits$scheduled_time)

delay_by_minute <- pokemon_center_visits |>
  group_by(minute) |>
  summarise(
    avg_delay = mean(delay),
    n = n(),
    .groups = "drop"
  )

delay_by_minute

# A tibble: 60 × 3
   minute avg_delay     n
    <int>     <dbl> <int>
 1      0      47.7    29
 2      1      45.8    29
 3      2      48.0    25
 4      3      38.1    26
 5      4      33.1    35
 6      5      39.5    34
 7      6      40.6    29
 8      7      37.5    30
 9      8      35.4    49
10      9      33.5    37
# ℹ 50 more rows
…
# Analiza po minutama
pokemon_center_visits$minute <- minute(pokemon_center_visits$scheduled_time)

delay_by_minute <- pokemon_center_visits |>
  group_by(minute) |>
  summarise(
    avg_delay = mean(delay),
    n = n(),
    .groups = "drop"
  )

delay_by_minute

# A tibble: 60 × 3
   minute avg_delay     n
    <int>     <dbl> <int>
 1      0      41.2    31
 2      1      42.3    28
 3      2      36.0    33
 4      3      36.3    40
 5      4      36.8    34
 6      5      38.3    35
 7      6      33.9    31
 8      7      28.4    36
 9      8      37.4    36
10      9      35.1    34
# ℹ 50 more rows
…
