9 Faktori – Znanost o podacima u R-u
…
    type_1 = fct_recode(type_1,
      "vodeni" = "water",
      "normalni" = "normal",
      "zemljani" = "grass",
      "buba" = "bug",
      "psio" = "psychic",
      "vatreni" = "fire",
      "strujni" = "electric",
      "zemljani" = "rock",
      "zmaj" = "dragon",
      "duh" = "ghost"
    )
  )

# A tibble: 800 × 13
      id name            type_1 type_2 total    HP attack defense special_attack
   <dbl> <chr>           <fct>  <fct>  <dbl> <dbl>  <dbl>   <dbl>          <dbl>
 1     1 bulbasaur       zemlj… poison   318    45     49      49             65
 2     2 ivysaur         zemlj… poison   405    60     62      63             80
 3     3 venusaur        zemlj… poison   525    80     82      83            100
 4     3 venusaurmega v… zemlj… poison   625    80    100     123            122
 5     4 charmander      vatre… <NA>     309    39     52      43             60
 6     5 charmeleon      vatre… <NA>     405    58     64      58             80
 7     6 charizard       vatre… flying   534    78     84      78            109
 8     6 charizardmega … vatre… dragon   634    78    130     111            130
 9     6 charizardmega … vatre… flying   634    78    104      78            159
10     7 squirtle        vodeni <NA>     314    44     48      65             50
# ℹ 790 more rows
# ℹ 4 more variables: special_defense <dbl>, speed <dbl>, generation <fct>,
#   legendary <lgl>
…
pokemon_dataset_type_groups <- pokemon_dataset |>
  mutate(
    type_groups = fct_collapse(
      .f = pokemon_dataset$type_1,
      "elementary types" = c("fire", "water", "grass", "electric", "rock"),
      "normal pokemons" = "normal",
      "creature pokemons" = c("bug", "dragon", "ghost"),
      other_level = "other types"
    )
  )

pokemon_dataset_type_groups

# A tibble: 800 × 14
      id name            type_1 type_2 total    HP attack defense special_attack
   <dbl> <chr>           <fct>  <fct>  <dbl> <dbl>  <dbl>   <dbl>          <dbl>
 1     1 bulbasaur       grass  poison   318    45     49      49             65
 2     2 ivysaur         grass  poison   405    60     62      63             80
 3     3 venusaur        grass  poison   525    80     82      83            100
 4     3 venusaurmega v… grass  poison   625    80    100     123            122
 5     4 charmander      fire   <NA>     309    39     52      43             60
 6     5 charmeleon      fire   <NA>     405    58     64      58             80
 7     6 charizard       fire   flying   534    78     84      78            109
 8     6 charizardmega … fire   dragon   634    78    130     111            130
 9     6 charizardmega … fire   flying   634    78    104      78            159
10     7 squirtle        water  <NA>     314    44     48      65             50
# ℹ 790 more rows
# ℹ 5 more variables: special_defense <dbl>, speed <dbl>, generation <fct>,
#   legendary <lgl>, type_groups <fct>
…
