3 Uređivanje podataka – Znanost o podacima u R-u
…
3. Varijable pohranjene u redovima

Varijable pohranjene u redovima predstavljaju obrnuti problem od prethodnih slučajeva neuredno organiziranih podataka. U ovom obliku neurednih podataka, ono što bi trebale biti varijable nalazi se u redovima, dok se vrijednosti tih varijabli nalaze u drugom stupcu. Ovakav oblik podataka rezultira pretjerano dugačkim formatom gdje se jedno opažanje proteže kroz više redova umjesto da bude sadržano u jednom redu. Ova organizacija čini podatke teškima za analizu jer krši temeljna načela urednih podataka prema kojima svaki red treba predstavljati jedno opažanje.

U primjeru podatkovnog okvira imdb_top_10_long, svaki film (opažanje) predstavljen je kroz više redova, pri čemu stupac “attribute” sadrži nazive varijabli poput “release_year”, “director”, “genres”, “runtime” i ostale, dok stupac “value” sadrži odgovarajuće vrijednosti tih varijabli. Na primjer, film “The Shawshank Redemption” prikazan je kroz deset redova, po jedan za svaku karakteristiku filma. Ovakav format rezultira podatkovnim okvirom s 100 redova (10 filmova × 10 atributa) umjesto očekivanih 10 redova za 10 filmova.

Code

# Pregled neurednog oblika podatkovnog okvira
imdb_top_10_long

# A tibble: 100 × 4
    rank movie                    attribute           value                     
   <dbl> <chr>                    <chr>               <chr>                     
 1     1 The Shawshank Redemption release_year        1994                      
 2     1 The Shawshank Redemption countries_of_origin United States             
 3     1 The Shawshank Redemption director            Frank Darabont            
 4     1 The Shawshank Redemption writers             Stephen King, Frank Darab…
 5     1 The Shawshank Redemption stars               Tim Robbins, Morgan Freem…
 6     1 The Shawshank Redemption genres              Drama                     
 7     1 The Shawshank Redemption language            English                   
 8     1 The Shawshank Redemption runtime             142                       
 9     1 The Shawshank Redemption colour              Color                     
10     1 The Shawshank Redemption budget              25000000                  
# ℹ 90 more rows
…
Nakon primjene pivot_longer() funkcije dobivamo uređeni podatkovni okvir koji sadrži četiri stupca: “rank” (rang filma), “movie” (naziv filma), “writer_id” (redni broj scenarista) i “writer” (ime scenarista). Svaki red predstavlja kombinaciju film-scenarist što omogućuje jednostavno brojanje filmova po scenaristu, identifikaciju najproduktivnijih scenarista ili analizu suradnji između različitih scenarista. Uređeni format također olakšava spajanje s drugim podacima o scenaristima te stvaranje vizualizacija mreža suradnji, što bi bilo komplicirano ili nemoguće u neuredno organiziranom širom formatu s odvojenim stupcima za svakog scenarista.

Code

# Pregled urednog oblika podatkovnog okvira
writers_dataset_tidy

# A tibble: 23 × 4
    rank movie                    writer_id writer              
   <dbl> <chr>                    <chr>     <chr>               
 1     1 The Shawshank Redemption 1         Stephen King        
 2     1 The Shawshank Redemption 2         Frank Darabont      
 3     2 The Godfather            1         Mario Puzo          
 4     2 The Godfather            2         Francis Ford Coppola
 5     3 The Dark Knight          1         Jonathan Nolan      
 6     3 The Dark Knight          2         Christopher Nolan   
 7     3 The Dark Knight          3         David S. Goyer      
 8     4 The Godfather Part II    1         Francis Ford Coppola
 9     4 The Godfather Part II    2         Mario Puzo          
10     5 12 Angry Men             1         Reginald Rose       
# ℹ 13 more rows
…
